{
  "metadata": {
    "schemaVersion": "1.0",
    "importType": "LEX",
    "importFormat": "JSON"
  },
  "resource": {
    "name": "command_bot",
    "version": "1",
    "intents": [
      {
        "name": "Hello_Intent",
        "version": "1",
        "fulfillmentActivity": {
          "type": "ReturnIntent"
        },
        "sampleUtterances": [
          "Hello"
        ],
        "slots": [],
        "conclusionStatement": {
          "messages": [
            {
              "groupNumber": 1,
              "contentType": "PlainText",
              "content": "Hello to you too!"
            }
          ]
        }
      },
      {
        "name": "Goodbye_Intent",
        "version": "1",
        "fulfillmentActivity": {
          "type": "ReturnIntent"
        },
        "sampleUtterances": [
          "Goodbye"
        ],
        "slots": [],
        "conclusionStatement": {
          "messages": [
            {
              "groupNumber": 1,
              "contentType": "PlainText",
              "content": "Goodbye user."
            }
          ]
        }
      },
      {
        "name": "Go_Forward_Intent",
        "version": "1",
        "fulfillmentActivity": {
          "type": "ReturnIntent"
        },
        "sampleUtterances": [
          "Go forward"
        ],
        "slots": [],
        "conclusionStatement": {
          "messages": [
            {
              "groupNumber": 1,
              "contentType": "PlainText",
              "content": "Okay, going forward."
            }
          ]
        }
      }
    ],
    "voiceId": "0",
    "childDirected": false,
    "locale": "en-US",
    "idleSessionTTLInSeconds": 300,
    "clarificationPrompt": {
      "messages": [
        {
          "contentType": "PlainText",
          "content": "Sorry, can you please repeat that?"
        }
      ],
      "maxAttempts": 5
    },
    "abortStatement": {
      "messages": [
        {
          "contentType": "PlainText",
          "content": "Sorry, I could not understand. Goodbye."
        }
      ]
    },
    "detectSentiment": false,
    "enableModelImprovements": true
  }
}